<VTKFile type="Collection" version="0.1" ByteOrder="LittleEndian">
  <!--VTK generated with holoshed.-->
  <Collection>
    <DataSet timestep="312.68" group="" part="0" file="dummy-07817.vtu" />
    <DataSet timestep="344.72" group="" part="0" file="dummy-08618.vtu" />
  </Collection>
</VTKFile>